^C:\USERS\SMITHRS1\DESKTOP\P4-MILESTONE2-RAYCASTING-JWB\P4 MILESTONE2 RAYCASTING JWB\JRAYGENMILESTONE2\RAYGENMS2\RAYGENMS2\EASYBMP.CPP
/c /Zi /nologo /W3 /WX- /O2 /Oi /GL /D WIN32 /D NDEBUG /D _CONSOLE /D _UNICODE /D UNICODE /Gm- /EHsc /MD /GS /Gy /fp:precise /Zc:wchar_t /Zc:forScope /Fo"X64\RELEASE\\" /Fd"X64\RELEASE\VC110.PDB" /Gd /TP C:\USERS\SMITHRS1\DESKTOP\P4-MILESTONE2-RAYCASTING-JWB\P4 MILESTONE2 RAYCASTING JWB\JRAYGENMILESTONE2\RAYGENMS2\RAYGENMS2\EASYBMP.CPP
^C:\USERS\SMITHRS1\DESKTOP\P4-MILESTONE2-RAYCASTING-JWB\P4 MILESTONE2 RAYCASTING JWB\JRAYGENMILESTONE2\RAYGENMS2\RAYGENMS2\GMATRIX4.CPP
/c /Zi /nologo /W3 /WX- /O2 /Oi /GL /D WIN32 /D NDEBUG /D _CONSOLE /D _UNICODE /D UNICODE /Gm- /EHsc /MD /GS /Gy /fp:precise /Zc:wchar_t /Zc:forScope /Fo"X64\RELEASE\\" /Fd"X64\RELEASE\VC110.PDB" /Gd /TP C:\USERS\SMITHRS1\DESKTOP\P4-MILESTONE2-RAYCASTING-JWB\P4 MILESTONE2 RAYCASTING JWB\JRAYGENMILESTONE2\RAYGENMS2\RAYGENMS2\GMATRIX4.CPP
^C:\USERS\SMITHRS1\DESKTOP\P4-MILESTONE2-RAYCASTING-JWB\P4 MILESTONE2 RAYCASTING JWB\JRAYGENMILESTONE2\RAYGENMS2\RAYGENMS2\GVECTOR4.CPP
/c /Zi /nologo /W3 /WX- /O2 /Oi /GL /D WIN32 /D NDEBUG /D _CONSOLE /D _UNICODE /D UNICODE /Gm- /EHsc /MD /GS /Gy /fp:precise /Zc:wchar_t /Zc:forScope /Fo"X64\RELEASE\\" /Fd"X64\RELEASE\VC110.PDB" /Gd /TP C:\USERS\SMITHRS1\DESKTOP\P4-MILESTONE2-RAYCASTING-JWB\P4 MILESTONE2 RAYCASTING JWB\JRAYGENMILESTONE2\RAYGENMS2\RAYGENMS2\GVECTOR4.CPP
^C:\USERS\SMITHRS1\DESKTOP\P4-MILESTONE2-RAYCASTING-JWB\P4 MILESTONE2 RAYCASTING JWB\JRAYGENMILESTONE2\RAYGENMS2\RAYGENMS2\STDAFX.CPP
/c /Zi /nologo /W3 /WX- /O2 /Oi /GL /D WIN32 /D NDEBUG /D _CONSOLE /D _UNICODE /D UNICODE /Gm- /EHsc /MD /GS /Gy /fp:precise /Zc:wchar_t /Zc:forScope /Fo"X64\RELEASE\\" /Fd"X64\RELEASE\VC110.PDB" /Gd /TP C:\USERS\SMITHRS1\DESKTOP\P4-MILESTONE2-RAYCASTING-JWB\P4 MILESTONE2 RAYCASTING JWB\JRAYGENMILESTONE2\RAYGENMS2\RAYGENMS2\STDAFX.CPP
^C:\USERS\SMITHRS1\DESKTOP\P4-MILESTONE2-RAYCASTING-JWB\P4 MILESTONE2 RAYCASTING JWB\JRAYGENMILESTONE2\RAYGENMS2\RAYGENMS2\STUBS.CPP
/c /Zi /nologo /W3 /WX- /O2 /Oi /GL /D WIN32 /D NDEBUG /D _CONSOLE /D _UNICODE /D UNICODE /Gm- /EHsc /MD /GS /Gy /fp:precise /Zc:wchar_t /Zc:forScope /Fo"X64\RELEASE\\" /Fd"X64\RELEASE\VC110.PDB" /Gd /TP C:\USERS\SMITHRS1\DESKTOP\P4-MILESTONE2-RAYCASTING-JWB\P4 MILESTONE2 RAYCASTING JWB\JRAYGENMILESTONE2\RAYGENMS2\RAYGENMS2\STUBS.CPP
^C:\USERS\SMITHRS1\DESKTOP\P4-MILESTONE2-RAYCASTING-JWB\P4 MILESTONE2 RAYCASTING JWB\JRAYGENMILESTONE2\RAYGENMS2\RAYGENMS2\RAYGENMS2.CPP
/c /Zi /nologo /W3 /WX- /O2 /Oi /GL /D WIN32 /D NDEBUG /D _CONSOLE /D _UNICODE /D UNICODE /Gm- /EHsc /MD /GS /Gy /fp:precise /Zc:wchar_t /Zc:forScope /Fo"X64\RELEASE\\" /Fd"X64\RELEASE\VC110.PDB" /Gd /TP C:\USERS\SMITHRS1\DESKTOP\P4-MILESTONE2-RAYCASTING-JWB\P4 MILESTONE2 RAYCASTING JWB\JRAYGENMILESTONE2\RAYGENMS2\RAYGENMS2\RAYGENMS2.CPP
^C:\USERS\SMITHRS1\DESKTOP\P4-MILESTONE2-RAYCASTING-JWB\P4 MILESTONE2 RAYCASTING JWB\JRAYGENMILESTONE2\RAYGENMS2\RAYGENMS2\RAYGENERATION.CPP
/c /Zi /nologo /W3 /WX- /O2 /Oi /GL /D WIN32 /D NDEBUG /D _CONSOLE /D _UNICODE /D UNICODE /Gm- /EHsc /MD /GS /Gy /fp:precise /Zc:wchar_t /Zc:forScope /Fo"X64\RELEASE\\" /Fd"X64\RELEASE\VC110.PDB" /Gd /TP C:\USERS\SMITHRS1\DESKTOP\P4-MILESTONE2-RAYCASTING-JWB\P4 MILESTONE2 RAYCASTING JWB\JRAYGENMILESTONE2\RAYGENMS2\RAYGENMS2\RAYGENERATION.CPP
^C:\USERS\BRUTTJW1\DESKTOP\SPRING 2017\GRAPHICS\P4 MILESTONE2 RAYCASTING JWB\P4 MILESTONE2 RAYCASTING JWB\JRAYGENMILESTONE2\RAYGENMS2\RAYGENMS2\EASYBMP.CPP
/c /Zi /nologo /W3 /WX- /O2 /Oi /GL /D WIN32 /D NDEBUG /D _CONSOLE /D _UNICODE /D UNICODE /Gm- /EHsc /MD /GS /Gy /fp:precise /Zc:wchar_t /Zc:forScope /Fo"X64\RELEASE\\" /Fd"X64\RELEASE\VC110.PDB" /Gd /TP C:\USERS\BRUTTJW1\DESKTOP\SPRING 2017\GRAPHICS\P4 MILESTONE2 RAYCASTING JWB\P4 MILESTONE2 RAYCASTING JWB\JRAYGENMILESTONE2\RAYGENMS2\RAYGENMS2\EASYBMP.CPP
^C:\USERS\BRUTTJW1\DESKTOP\SPRING 2017\GRAPHICS\P4 MILESTONE2 RAYCASTING JWB\P4 MILESTONE2 RAYCASTING JWB\JRAYGENMILESTONE2\RAYGENMS2\RAYGENMS2\GMATRIX4.CPP
/c /Zi /nologo /W3 /WX- /O2 /Oi /GL /D WIN32 /D NDEBUG /D _CONSOLE /D _UNICODE /D UNICODE /Gm- /EHsc /MD /GS /Gy /fp:precise /Zc:wchar_t /Zc:forScope /Fo"X64\RELEASE\\" /Fd"X64\RELEASE\VC110.PDB" /Gd /TP C:\USERS\BRUTTJW1\DESKTOP\SPRING 2017\GRAPHICS\P4 MILESTONE2 RAYCASTING JWB\P4 MILESTONE2 RAYCASTING JWB\JRAYGENMILESTONE2\RAYGENMS2\RAYGENMS2\GMATRIX4.CPP
^C:\USERS\BRUTTJW1\DESKTOP\SPRING 2017\GRAPHICS\P4 MILESTONE2 RAYCASTING JWB\P4 MILESTONE2 RAYCASTING JWB\JRAYGENMILESTONE2\RAYGENMS2\RAYGENMS2\GVECTOR4.CPP
/c /Zi /nologo /W3 /WX- /O2 /Oi /GL /D WIN32 /D NDEBUG /D _CONSOLE /D _UNICODE /D UNICODE /Gm- /EHsc /MD /GS /Gy /fp:precise /Zc:wchar_t /Zc:forScope /Fo"X64\RELEASE\\" /Fd"X64\RELEASE\VC110.PDB" /Gd /TP C:\USERS\BRUTTJW1\DESKTOP\SPRING 2017\GRAPHICS\P4 MILESTONE2 RAYCASTING JWB\P4 MILESTONE2 RAYCASTING JWB\JRAYGENMILESTONE2\RAYGENMS2\RAYGENMS2\GVECTOR4.CPP
^C:\USERS\BRUTTJW1\DESKTOP\SPRING 2017\GRAPHICS\P4 MILESTONE2 RAYCASTING JWB\P4 MILESTONE2 RAYCASTING JWB\JRAYGENMILESTONE2\RAYGENMS2\RAYGENMS2\STDAFX.CPP
/c /Zi /nologo /W3 /WX- /O2 /Oi /GL /D WIN32 /D NDEBUG /D _CONSOLE /D _UNICODE /D UNICODE /Gm- /EHsc /MD /GS /Gy /fp:precise /Zc:wchar_t /Zc:forScope /Fo"X64\RELEASE\\" /Fd"X64\RELEASE\VC110.PDB" /Gd /TP C:\USERS\BRUTTJW1\DESKTOP\SPRING 2017\GRAPHICS\P4 MILESTONE2 RAYCASTING JWB\P4 MILESTONE2 RAYCASTING JWB\JRAYGENMILESTONE2\RAYGENMS2\RAYGENMS2\STDAFX.CPP
^C:\USERS\BRUTTJW1\DESKTOP\SPRING 2017\GRAPHICS\P4 MILESTONE2 RAYCASTING JWB\P4 MILESTONE2 RAYCASTING JWB\JRAYGENMILESTONE2\RAYGENMS2\RAYGENMS2\STUBS.CPP
/c /Zi /nologo /W3 /WX- /O2 /Oi /GL /D WIN32 /D NDEBUG /D _CONSOLE /D _UNICODE /D UNICODE /Gm- /EHsc /MD /GS /Gy /fp:precise /Zc:wchar_t /Zc:forScope /Fo"X64\RELEASE\\" /Fd"X64\RELEASE\VC110.PDB" /Gd /TP C:\USERS\BRUTTJW1\DESKTOP\SPRING 2017\GRAPHICS\P4 MILESTONE2 RAYCASTING JWB\P4 MILESTONE2 RAYCASTING JWB\JRAYGENMILESTONE2\RAYGENMS2\RAYGENMS2\STUBS.CPP
^C:\USERS\BRUTTJW1\DESKTOP\SPRING 2017\GRAPHICS\P4 MILESTONE2 RAYCASTING JWB\P4 MILESTONE2 RAYCASTING JWB\JRAYGENMILESTONE2\RAYGENMS2\RAYGENMS2\RAYGENMS2.CPP
/c /Zi /nologo /W3 /WX- /O2 /Oi /GL /D WIN32 /D NDEBUG /D _CONSOLE /D _UNICODE /D UNICODE /Gm- /EHsc /MD /GS /Gy /fp:precise /Zc:wchar_t /Zc:forScope /Fo"X64\RELEASE\\" /Fd"X64\RELEASE\VC110.PDB" /Gd /TP C:\USERS\BRUTTJW1\DESKTOP\SPRING 2017\GRAPHICS\P4 MILESTONE2 RAYCASTING JWB\P4 MILESTONE2 RAYCASTING JWB\JRAYGENMILESTONE2\RAYGENMS2\RAYGENMS2\RAYGENMS2.CPP
^C:\USERS\BRUTTJW1\DESKTOP\SPRING 2017\GRAPHICS\P4 MILESTONE2 RAYCASTING JWB\P4 MILESTONE2 RAYCASTING JWB\JRAYGENMILESTONE2\RAYGENMS2\RAYGENMS2\RAYGENERATION.CPP
/c /Zi /nologo /W3 /WX- /O2 /Oi /GL /D WIN32 /D NDEBUG /D _CONSOLE /D _UNICODE /D UNICODE /Gm- /EHsc /MD /GS /Gy /fp:precise /Zc:wchar_t /Zc:forScope /Fo"X64\RELEASE\\" /Fd"X64\RELEASE\VC110.PDB" /Gd /TP C:\USERS\BRUTTJW1\DESKTOP\SPRING 2017\GRAPHICS\P4 MILESTONE2 RAYCASTING JWB\P4 MILESTONE2 RAYCASTING JWB\JRAYGENMILESTONE2\RAYGENMS2\RAYGENMS2\RAYGENERATION.CPP
^C:\USERS\BRUTTJW1\DESKTOP\SPRING 2017\GRAPHICS\P4 FINALE\JRAYGENMILESTONE2\RAYGENMS2\RAYGENMS2\EASYBMP.CPP
/c /Zi /nologo /W3 /WX- /O2 /Oi /GL /D WIN32 /D NDEBUG /D _CONSOLE /D _UNICODE /D UNICODE /Gm- /EHsc /MD /GS /Gy /fp:precise /Zc:wchar_t /Zc:forScope /Fo"X64\RELEASE\\" /Fd"X64\RELEASE\VC110.PDB" /Gd /TP C:\USERS\BRUTTJW1\DESKTOP\SPRING 2017\GRAPHICS\P4 FINALE\JRAYGENMILESTONE2\RAYGENMS2\RAYGENMS2\EASYBMP.CPP
^C:\USERS\BRUTTJW1\DESKTOP\SPRING 2017\GRAPHICS\P4 FINALE\JRAYGENMILESTONE2\RAYGENMS2\RAYGENMS2\GMATRIX4.CPP
/c /Zi /nologo /W3 /WX- /O2 /Oi /GL /D WIN32 /D NDEBUG /D _CONSOLE /D _UNICODE /D UNICODE /Gm- /EHsc /MD /GS /Gy /fp:precise /Zc:wchar_t /Zc:forScope /Fo"X64\RELEASE\\" /Fd"X64\RELEASE\VC110.PDB" /Gd /TP C:\USERS\BRUTTJW1\DESKTOP\SPRING 2017\GRAPHICS\P4 FINALE\JRAYGENMILESTONE2\RAYGENMS2\RAYGENMS2\GMATRIX4.CPP
^C:\USERS\BRUTTJW1\DESKTOP\SPRING 2017\GRAPHICS\P4 FINALE\JRAYGENMILESTONE2\RAYGENMS2\RAYGENMS2\GVECTOR4.CPP
/c /Zi /nologo /W3 /WX- /O2 /Oi /GL /D WIN32 /D NDEBUG /D _CONSOLE /D _UNICODE /D UNICODE /Gm- /EHsc /MD /GS /Gy /fp:precise /Zc:wchar_t /Zc:forScope /Fo"X64\RELEASE\\" /Fd"X64\RELEASE\VC110.PDB" /Gd /TP C:\USERS\BRUTTJW1\DESKTOP\SPRING 2017\GRAPHICS\P4 FINALE\JRAYGENMILESTONE2\RAYGENMS2\RAYGENMS2\GVECTOR4.CPP
^C:\USERS\BRUTTJW1\DESKTOP\SPRING 2017\GRAPHICS\P4 FINALE\JRAYGENMILESTONE2\RAYGENMS2\RAYGENMS2\RAYGENERATION.CPP
/c /Zi /nologo /W3 /WX- /O2 /Oi /GL /D WIN32 /D NDEBUG /D _CONSOLE /D _UNICODE /D UNICODE /Gm- /EHsc /MD /GS /Gy /fp:precise /Zc:wchar_t /Zc:forScope /Fo"X64\RELEASE\\" /Fd"X64\RELEASE\VC110.PDB" /Gd /TP C:\USERS\BRUTTJW1\DESKTOP\SPRING 2017\GRAPHICS\P4 FINALE\JRAYGENMILESTONE2\RAYGENMS2\RAYGENMS2\RAYGENERATION.CPP
^C:\USERS\BRUTTJW1\DESKTOP\SPRING 2017\GRAPHICS\P4 FINALE\JRAYGENMILESTONE2\RAYGENMS2\RAYGENMS2\RAYGENMS2.CPP
/c /Zi /nologo /W3 /WX- /O2 /Oi /GL /D WIN32 /D NDEBUG /D _CONSOLE /D _UNICODE /D UNICODE /Gm- /EHsc /MD /GS /Gy /fp:precise /Zc:wchar_t /Zc:forScope /Fo"X64\RELEASE\\" /Fd"X64\RELEASE\VC110.PDB" /Gd /TP C:\USERS\BRUTTJW1\DESKTOP\SPRING 2017\GRAPHICS\P4 FINALE\JRAYGENMILESTONE2\RAYGENMS2\RAYGENMS2\RAYGENMS2.CPP
^C:\USERS\BRUTTJW1\DESKTOP\SPRING 2017\GRAPHICS\P4 FINALE\JRAYGENMILESTONE2\RAYGENMS2\RAYGENMS2\STDAFX.CPP
/c /Zi /nologo /W3 /WX- /O2 /Oi /GL /D WIN32 /D NDEBUG /D _CONSOLE /D _UNICODE /D UNICODE /Gm- /EHsc /MD /GS /Gy /fp:precise /Zc:wchar_t /Zc:forScope /Fo"X64\RELEASE\\" /Fd"X64\RELEASE\VC110.PDB" /Gd /TP C:\USERS\BRUTTJW1\DESKTOP\SPRING 2017\GRAPHICS\P4 FINALE\JRAYGENMILESTONE2\RAYGENMS2\RAYGENMS2\STDAFX.CPP
^C:\USERS\BRUTTJW1\DESKTOP\SPRING 2017\GRAPHICS\P4 FINALE\JRAYGENMILESTONE2\RAYGENMS2\RAYGENMS2\STUBS.CPP
/c /Zi /nologo /W3 /WX- /O2 /Oi /GL /D WIN32 /D NDEBUG /D _CONSOLE /D _UNICODE /D UNICODE /Gm- /EHsc /MD /GS /Gy /fp:precise /Zc:wchar_t /Zc:forScope /Fo"X64\RELEASE\\" /Fd"X64\RELEASE\VC110.PDB" /Gd /TP C:\USERS\BRUTTJW1\DESKTOP\SPRING 2017\GRAPHICS\P4 FINALE\JRAYGENMILESTONE2\RAYGENMS2\RAYGENMS2\STUBS.CPP
